<svg width="48" height="48" viewBox="0 0 48 48" fill="none" xmlns="http://www.w3.org/2000/svg">
<path d="M41.41 13.59L39.41 11.59C39.29 11.47 39.14 11.37 39 11.28V8C39 6.9 38.1 6 37 6H29C27.9 6 27 6.9 27 8V10.35L24 14.01C23.58 14.52 23.17 14.91 23.05 15.63C23.02 15.74 23 15.86 23 16.01V23C23 23 23 23 23 23.01C22.35 23.01 21.61 23.01 20.91 23.02C20.91 23 20.91 22.97 20.91 22.95C20.91 22.22 20.68 21.53 20.25 20.95C20.29 20.9 20.31 20.84 20.34 20.78C20.48 20.67 20.6 20.52 20.66 20.34H20.67C20.85 20.07 20.94 19.75 20.97 19.07C20.97 18.82 20.94 18.57 20.86 18.34C20.75 17.72 20.47 17.14 20.05 16.68C18.79 15.15 17.32 13.19 16.99 12.52V8C16.99 7.47 16.78 6.95 16.4 6.58C16.03 6.21 15.52 6 14.99 6C14.99 6 14.98 6 14.97 6C14.97 6 14.96 6 14.95 6L11.95 6.02C10.86 6.03 9.98001 6.91 9.97001 8V11.89C9.97001 11.89 9.97001 11.94 9.97001 11.97C9.97001 11.97 9.97001 11.98 9.97001 11.99L9.94001 12.2C9.64001 12.9 8.15001 15.04 6.86001 16.71C6.45001 17.18 6.17001 17.76 6.07001 18.38C5.97001 18.7 5.95001 19.04 6.01001 19.36C6.08001 19.94 6.30001 20.48 6.64001 20.94C6.21001 21.52 5.98001 22.21 5.98001 22.94C5.98001 23.67 6.21001 24.37 6.64001 24.94C6.21001 25.52 5.98001 26.21 5.98001 26.94C5.98001 27.67 6.21001 28.37 6.65001 28.95C6.22001 29.55 5.98001 30.24 5.98001 30.95V36C6.00001 38.22 7.80001 40.01 10.01 40.01H12.44C12.99 40.01 13.44 39.56 13.44 39.01C13.44 38.46 12.99 38.01 12.44 38.01H10.01C8.90001 38.01 7.99001 37.11 7.99001 35.99V30.94C7.98001 30.56 8.15001 30.21 8.42001 29.93C8.96001 29.36 8.95001 28.46 8.38001 27.9C7.85001 27.37 7.85001 26.5 8.38001 25.97C8.66001 25.69 8.81001 25.33 8.81001 24.93C8.81001 24.53 8.66001 24.17 8.38001 23.89C7.85001 23.36 7.85001 22.49 8.38001 21.96C8.66001 21.68 8.81001 21.32 8.81001 20.92C8.81001 20.52 8.66001 20.16 8.38001 19.88C8.13001 19.63 8.00001 19.3 7.99001 18.96C7.99001 18.96 8.03001 18.88 8.04001 18.84C8.06001 18.52 8.17001 18.21 8.41001 17.96C8.41001 17.96 11.62 13.79 11.91 12.63L11.97 12.2C11.97 12.15 11.99 12.1 11.99 12.05V11.97H14.99V12.46C14.99 12.46 15 12.55 15.01 12.6L15.07 13C15.26 13.72 16.74 15.67 17.71 16.9C18.17 17.53 18.51 17.97 18.51 17.97C18.75 18.21 18.86 18.53 18.88 18.85C18.9 18.89 18.92 18.93 18.93 18.97C18.92 19.3 18.79 19.63 18.54 19.89C18.26 20.17 18.11 20.53 18.11 20.93C18.11 21.33 18.26 21.69 18.54 21.97C18.83 22.26 18.95 22.64 18.92 23.02C18.36 23.02 17.99 23.02 17.99 23.03C17.32 23.07 16.72 23.44 16.39 24.02L15.29 25.95C15.12 26.25 15.03 26.59 15.03 26.94V38.98C15.03 39.3 15.11 39.62 15.26 39.9L16.67 41.45C16.84 41.77 17.18 41.98 17.55 41.98H25.51C25.88 41.98 26.22 41.78 26.39 41.45C26.39 41.45 27.94 39.98 28.03 39.98H36.03C36.19 39.96 36.34 39.94 36.5 39.92L40.5 38.94C41.4 38.72 42.03 37.92 42.03 37V15.01C42.03 14.48 41.82 13.97 41.44 13.6L41.41 13.59ZM14.97 10L11.97 9.97L11.99 8.02L14.96 8V10H14.97ZM29 8.01H29.05H37V10.02H29V8.02V8.01ZM26 39.1L24.9 40L18.1 40.03L17 39.01V26.93L18.1 24.99L24.91 24.96L26.01 26.79V39.09L26 39.1ZM34 38H28V26.81C28 26.45 27.9 26.09 27.71 25.78L26.61 23.96C26.26 23.39 25.66 23.04 25 23.01V17H34V37.99V38ZM34 15.01H25.72L28.22 12.01H36.29C35.39 13.18 34.01 15 34 15.01ZM40 37.03L36 38.01V16.02L38.06 13.07L40 15.01V37.03Z" fill="#223C61"/>
</svg>
