<svg width="48" height="48" viewBox="0 0 48 48" fill="none" xmlns="http://www.w3.org/2000/svg">
<path d="M12.73 19.34C11.77 18.79 10.55 19.12 10 20.07L6.5 26.13C6.22 26.61 6.39 27.22 6.87 27.5C7.35 27.78 7.96 27.61 8.24 27.13L12.74 19.34H12.73Z" fill="#223C61"/>
<path d="M33 27C32.45 27 32 27.45 32 28V29L32.93 41.08C32.97 41.6 33.4 42 33.93 42H39.14C40.19 42 41.07 41.19 41.15 40.14L42.01 29C42.01 27.9 41.11 27 40.01 27H33ZM39.14 40H34.86L34.01 29H40L39.14 40Z" fill="#223C61"/>
<path d="M24 15C26.49 15 28.5 12.99 28.5 10.5C28.5 8.01 26.49 6 24 6C21.51 6 19.5 8.01 19.5 10.5C19.5 12.99 21.51 15 24 15ZM24 7.8C25.49 7.8 26.7 9.01 26.7 10.5C26.7 11.99 25.49 13.2 24 13.2C22.51 13.2 21.3 11.99 21.3 10.5C21.3 9.01 22.51 7.8 24 7.8Z" fill="#223C61"/>
<path d="M26 16H21C19.91 16 18.57 16.79 17.75 17.92L14.71 23.53C14.35 24.2 14.83 25.01 15.59 25.01C15.96 25.01 16.29 24.81 16.47 24.49L19.49 18.94C19.8 18.37 20.4 18.01 21.05 18.01H25.99C27.09 18.01 27.99 18.91 27.99 20.01V24.01C27.99 24.56 28.44 25.01 28.99 25.01C29.54 25.01 29.99 24.56 29.99 24.01V20.01C29.99 17.81 28.19 16.01 25.99 16.01L26 16Z" fill="#223C61"/>
<path d="M17 28.02V28H10C8.9 28 8 28.9 8 30L8.92 41.08C8.96 41.6 9.4 42 9.92 42H15.15C16.19 42 17.06 41.19 17.14 40.15L17.93 29.07C17.97 28.52 17.55 28.06 17.01 28.02H17ZM10.84 40L10.01 30H15.87L15.16 40H10.84Z" fill="#223C61"/>
<path d="M21 25C21.55 25 22 24.55 22 24V22C22 21.45 21.55 21 21 21C20.45 21 20 21.45 20 22V24C20 24.55 20.45 25 21 25Z" fill="#223C61"/>
<path d="M28 27H21C20.45 27 20 27.45 20 28V29L20.93 41.08C20.97 41.6 21.4 42 21.93 42H27.15C28.19 42 29.06 41.2 29.14 40.15L30 29C30 27.9 29.1 27 28 27ZM27.15 40H22.85L22 29H27.99L27.14 40H27.15Z" fill="#223C61"/>
</svg>
