<svg width="48" height="48" viewBox="0 0 48 48" fill="none" xmlns="http://www.w3.org/2000/svg">
<path d="M41 37H40V14C40 12.34 38.66 11 37 11H33V8H34C34.55 8 35 7.55 35 7C35 6.45 34.55 6 34 6H30C29.45 6 29 6.45 29 7C29 7.55 29.45 8 30 8H31V11H18C16.34 11 15 12.34 15 14V19.53C15 20.08 15.45 20.53 16 20.53C16.55 20.53 17 20.08 17 19.53V14C17 13.45 17.45 13 18 13H20V27C20 27.55 20.45 28 21 28H34C34.55 28 35 27.55 35 27V13H37C37.55 13 38 13.45 38 14V37H21.74C21.47 36.42 21.38 36.08 21.36 35.89C21.32 35.53 21.28 35.36 21.25 35.2C21.22 35.07 21.2 34.95 21.18 34.67L21.12 33.94C21 32.3 20.86 30.43 20.4 29.41C19.94 28.4 18.66 27.68 17.53 27.05C17.29 26.92 17.08 26.8 16.9 26.68L17.79 24.35C18.04 23.92 18.06 23.42 17.84 22.96C17.67 22.6 17.36 22.33 16.99 22.17L14.99 21.99L14.97 21.95C14.48 21.92 14 21.83 13.58 21.66L12.63 21.27C11.8 20.93 10.82 21.16 10.31 21.81C9.93001 22.3 9.89001 22.94 10.18 23.47L11.78 26.88C11.65 26.96 11.51 27.03 11.36 27.12C10.27 27.74 9.03001 28.43 8.58001 29.41C8.11001 30.44 7.98001 32.31 7.85001 33.96L7.80001 34.67C7.78001 34.95 7.76001 35.06 7.73001 35.19C7.70001 35.35 7.66001 35.52 7.62001 35.88C7.58001 36.19 7.37001 36.95 6.36001 38.55C5.95001 39.21 5.86001 39.99 6.13001 40.64C6.48001 41.47 7.25 41.99 8.15 41.99H20.79C21.69 41.99 22.46 41.47 22.81 40.64C23.02 40.13 23.01 39.54 22.8 38.99H40.97C41.52 38.99 41.97 38.54 41.97 37.99C41.97 37.44 41.52 36.99 40.97 36.99L41 37ZM33 26H22V18H33V26ZM33 16H22V13H33V16ZM12.85 23.64C13.61 23.95 14.47 24.11 15.34 24.11H15.7L15.09 26.09H13.75L12.46 23.47L12.85 23.63V23.64ZM20.97 39.92C20.95 39.98 20.9 40.05 20.82 40.05H8.18001C8.11001 40.05 8.06 39.98 8.03 39.92C8.00001 39.86 8.02 39.72 8.11 39.57C9.05 38.09 9.55 36.95 9.65 36.11C9.68 35.83 9.71 35.69 9.73 35.57C9.77 35.38 9.80001 35.22 9.83001 34.83L9.88001 34.1C9.97001 32.83 10.11 30.92 10.44 30.2C10.62 29.8 11.77 29.16 12.39 28.81C12.81 28.57 13.18 28.37 13.46 28.16C13.5 28.13 13.55 28.13 13.6 28.12H15.47C15.75 28.32 16.1 28.52 16.51 28.75C17.15 29.11 18.35 29.78 18.54 30.21C18.87 30.93 19.01 32.83 19.1 34.1L19.16 34.84C19.19 35.23 19.22 35.39 19.26 35.58C19.28 35.7 19.31 35.84 19.34 36.12C19.44 36.96 19.94 38.1 20.88 39.58C20.96 39.71 20.99 39.85 20.96 39.93L20.97 39.92Z" fill="#223C61"/>
</svg>
