<svg width="48" height="48" viewBox="0 0 48 48" fill="none" xmlns="http://www.w3.org/2000/svg">
<path d="M32 8V7C32 6.45 31.56 6 31 6C30.45 6 30 6.45 30 7V8L18 7.98V7C18 6.45 17.55 6 17 6C16.45 6 16 6.45 16 7V8L10.01 7.99C9.45999 7.99 9.00999 8.44 9.00999 8.99L8.98999 38.02C8.98999 40.22 10.77 42.01 12.97 42.01H35.01C37.22 42.01 39.01 40.22 39.01 38.01V9C39.01 8.45 38.56 8 38.01 8H32ZM37 38.03C37 39.12 36.12 40 35.03 40H12.99C11.89 40 11 39.11 11 38.01V16H37V38.03ZM37 14H11V10H15.98V11C15.98 11.55 16.42 12 16.98 12H17C17.55 12 18 11.55 18 11V10H30V11C30 11.55 30.45 12 31 12C31.55 12 32 11.55 32 11V10H37V14Z" fill="#223C61"/>
<path d="M31 20H30.01V19.97C30 18.88 29.1 18 28.01 18H20C18.9 18 18 18.9 18 20H17C16.45 20 16 20.45 16 21C16 21.55 16.45 22 17 22H18.01V32.78C17.39 33.33 17 34.12 17 35C17 36.65 18.35 38 20 38C20.88 38 21.67 37.61 22.22 37H26C27.16 37 28.17 36.13 28.34 34.98L29.99 22.02C29.99 22.02 29.99 22 29.99 21.99H31.01C31.56 21.99 32.01 21.54 32.01 20.99C32.01 20.44 31.56 19.99 31.01 19.99L31 20ZM20 36C19.45 36 19 35.55 19 35C19 34.45 19.45 34 20 34C20.55 34 21 34.45 21 35C21 35.55 20.55 36 20 36ZM27.97 21.02L26.36 34.69C26.33 34.87 26.18 35 26 35H23C23 33.35 21.65 32 20 32V20H28L27.97 21.02Z" fill="#223C61"/>
</svg>
