<svg width="48" height="48" viewBox="0 0 48 48" fill="none" xmlns="http://www.w3.org/2000/svg">
<path d="M31 23H18.2C15.64 23 13.35 24.57 12.5 26.82H12.48L12.44 26.96C12.42 27.01 12.4 27.05 12.38 27.1C12.31 27.32 12.26 27.55 12.22 27.79L10.99 32.76C10.91 33.06 10.97 33.37 11.15 33.62L11.68 34.43C11.97 34.79 12.46 34.91 12.87 34.71L16.01 33.23L16.85 35.04L14.06 36.38C13.49 36.65 13.31 37.37 13.69 37.88C13.97 38.26 14.48 38.39 14.9 38.19L16.01 37.64V40.88C16.01 40.88 15.98 40.96 15.98 41.01C15.98 41.56 16.43 42.01 16.98 42.01H31.98C32.53 42.01 32.98 41.56 32.98 41.01C32.98 40.92 32.95 40.84 32.93 40.75L32.96 39.01L35.92 38.98C36.46 38.98 36.91 38.53 36.91 37.98L36.93 29.02C36.93 25.65 34.32 23.01 30.99 23.01L31 23ZM34.94 37L32.98 37.02V30C32.98 29.46 32.56 29.02 32.02 29H31.99C31.42 28.98 30.95 29.43 30.95 30V40H18.01V36.7L18.57 36.43C18.57 36.43 18.65 36.43 18.72 36.39L21.42 35.08C22.42 34.6 22.83 33.4 22.35 32.41L21.48 30.61L24.18 29.3C24.68 29.06 24.89 28.46 24.64 27.96C24.4 27.46 23.8 27.25 23.3 27.5L19.7 29.24L16.97 30.56L13.16 32.36L14.31 27.62C14.31 27.62 14.35 27.56 14.36 27.53C14.93 26.05 16.51 25.03 18.2 25.03H31.01C33.22 25.03 34.96 26.79 34.96 29.03V36.99L34.94 37ZM17.86 32.35L19.66 31.48L20.53 33.28L18.73 34.15L17.86 32.35ZM24.98 22C29.4 22 32.98 18.42 32.98 14C32.98 9.58 29.4 6 24.98 6C20.56 6 16.98 9.58 16.98 14C16.98 18.42 20.56 22 24.98 22ZM24.98 8C26.41 8 27.72 8.5 28.75 9.34C28.69 9.95 28.51 10.42 28.2 10.74C27.33 11.65 25.36 11.61 23.46 11.57C22 11.54 20.51 11.53 19.34 11.95C20.18 9.65 22.38 8 24.97 8H24.98ZM19.46 14.19C19.99 13.5 21.82 13.54 23.43 13.57C25.66 13.61 28.17 13.66 29.65 12.12C29.91 11.85 30.12 11.55 30.29 11.2C30.73 12.03 30.98 12.98 30.98 13.99C30.98 17.3 28.29 19.99 24.98 19.99C22.42 19.99 20.24 18.38 19.38 16.12C19.18 15.2 19.19 14.53 19.46 14.18V14.19Z" fill="#223C61"/>
</svg>
