<svg width="48" height="48" viewBox="0 0 48 48" fill="none" xmlns="http://www.w3.org/2000/svg">
<path d="M41 40.0002H37L33.95 17.0902C33.41 13.8502 31.12 11.2402 27.98 10.2702C26.95 9.95016 17.89 6.35016 16.99 6.14016C15.98 5.89016 15.05 5.95016 15.01 5.95016C11.35 5.95016 8.18 8.53016 8.18 12.7802C8.18 17.0302 11.36 19.9902 15.02 19.9902L23.63 19.9602C24.71 19.9602 25.58 20.8402 25.58 21.9102C25.58 22.4802 25.33 23.0302 24.89 23.4002L23.16 25.4402C21.57 24.5202 19.74 23.9802 17.77 23.9802H11.07C8.82 23.9802 7 25.7302 7 27.9802V31.6702C6.37 32.6202 6 33.7602 6 34.9802C6 38.2902 8.69 40.9802 12 40.9802C13.22 40.9802 14.36 40.6102 15.31 39.9802H23.97C26.68 39.9802 28.96 37.8202 28.99 35.1002C29.02 31.7402 27.53 28.7202 25.16 26.7002L26.64 24.9202C27.49 24.1702 27.98 23.0902 27.98 21.9502C27.98 19.7602 26.2 17.9802 24.01 17.9802L15.03 18.0102C12.48 18.0102 10.2 15.8002 10.2 12.7902C10.2 10.0202 12.48 7.96016 15.1 7.96016C15.1 7.96016 15.82 7.92016 16.54 8.09016C17.24 8.26016 24.61 11.3202 27.4 12.1902C29.81 12.9302 31.57 14.9402 31.98 17.3502L35 39.9802H31.01C30.46 39.9802 30.01 40.4302 30.01 40.9802C30.01 41.5302 30.46 41.9802 31.01 41.9802H41.01C41.56 41.9802 42.01 41.5302 42.01 40.9802C42.01 40.4302 41.56 39.9802 41.01 39.9802L41 40.0002ZM8 35.0002C8 32.7902 9.79 31.0002 12 31.0002C14.21 31.0002 16 32.7902 16 35.0002C16 37.2102 14.21 39.0002 12 39.0002C9.79 39.0002 8 37.2102 8 35.0002ZM26.97 35.1002C26.95 36.7202 25.57 38.0002 23.95 38.0002H17.19C17.7 37.1202 18 36.0902 18 35.0002C18 31.6902 15.31 29.0002 12 29.0002C10.91 29.0002 9.88 29.3002 9 29.8102V28.0502C9 26.9202 9.93 26.0002 11.07 26.0002H17.99C22.98 26.0002 27.04 30.0902 26.98 35.1002H26.97Z" fill="#223C61"/>
</svg>
