<svg width="48" height="48" viewBox="0 0 48 48" fill="none" xmlns="http://www.w3.org/2000/svg">
<path d="M41.64 24.8302L37.21 20.4002C36.92 20.1002 36.53 19.9602 36.14 19.9602C35.75 19.9602 35.37 20.1102 35.07 20.4002L30.76 24.7302C29.85 23.6802 28.51 23.0102 27 23.0102L14.42 22.9702C12.18 22.9702 12 20.6802 12 19.9802V7.00023C12 6.45023 11.55 6.00023 11 6.00023C10.45 6.00023 10 6.45023 10 7.00023V10.0002H8C6.9 10.0002 6 10.9002 6 12.0002V19.9902C6 24.9702 9.42 28.7602 14 28.9802V41.0002C14 41.5502 14.45 42.0002 15 42.0002H17C17.55 42.0002 18 41.5502 18 41.0002C18 40.4502 17.55 40.0002 17 40.0002H16V27.0002L14.43 26.9702C10.25 26.9702 8 23.3702 8 19.9802V15.9902H10V19.9802C10 22.9702 11.78 24.9902 14.42 24.9902L27.27 25.0202C27.97 25.0802 28.62 25.3702 29.12 25.8802C29.2 25.9602 29.26 26.0502 29.33 26.1402L21.47 34.0202C21.34 34.1502 21.24 34.3202 21.2 34.5102L19.83 40.7002C19.68 41.3902 20.21 42.0102 20.87 42.0102C20.95 42.0102 21.02 42.0102 21.1 41.9802L27.32 40.6302C27.51 40.5902 27.68 40.5002 27.82 40.3602L41.63 26.5502C42.11 26.0702 42.11 25.3002 41.63 24.8302H41.64ZM10 14.0002H8V12.0002H10V14.0002ZM26.63 38.7302L22.11 39.7102L23.1 35.2202L23.28 35.0402L26.8 38.5602L26.63 38.7302ZM28.22 37.1402L24.7 33.6202L36.14 22.1502L39.68 25.6902L28.22 37.1502V37.1402ZM22 21.9902C26.42 21.9902 30 18.4102 30 13.9902C30 9.57023 26.42 5.99023 22 5.99023C17.58 5.99023 14 9.57023 14 13.9902C14 18.4102 17.58 21.9902 22 21.9902ZM22 7.99023C23.43 7.99023 24.74 8.49023 25.77 9.33023C25.71 9.94023 25.53 10.4102 25.22 10.7302C24.35 11.6402 22.38 11.6002 20.48 11.5602C19.02 11.5302 17.53 11.5202 16.36 11.9402C17.2 9.64023 19.4 7.99023 21.99 7.99023H22ZM16.48 14.1802C17.01 13.4902 18.84 13.5302 20.45 13.5602C22.68 13.6002 25.19 13.6502 26.67 12.1102C26.93 11.8402 27.14 11.5402 27.31 11.1902C27.75 12.0202 28 12.9702 28 13.9802C28 17.2902 25.31 19.9802 22 19.9802C19.44 19.9802 17.26 18.3702 16.4 16.1102C16.2 15.1902 16.21 14.5202 16.48 14.1702V14.1802Z" fill="#223C61"/>
</svg>
