<svg width="48" height="48" viewBox="0 0 48 48" fill="none" xmlns="http://www.w3.org/2000/svg">
<path d="M19.49 19.5005C19.49 21.9905 21.51 24.0105 24 24.0105C26.49 24.0105 28.51 21.9905 28.51 19.5005C28.51 17.0105 26.49 14.9905 24 14.9905C21.51 14.9905 19.49 17.0105 19.49 19.5005ZM24 16.9905C25.38 16.9905 26.51 18.1205 26.51 19.5005C26.51 20.8805 25.38 22.0105 24 22.0105C22.62 22.0105 21.49 20.8805 21.49 19.5005C21.49 18.1205 22.62 16.9905 24 16.9905Z" fill="#223C61"/>
<path d="M29.47 15.0005C31.96 15.0005 33.98 12.9805 33.98 10.4905C33.98 8.00047 31.96 5.98047 29.47 5.98047C26.98 5.98047 24.96 8.00047 24.96 10.4905C24.96 12.9805 26.98 15.0005 29.47 15.0005ZM29.47 7.98047C30.85 7.98047 31.98 9.11047 31.98 10.4905C31.98 11.8705 30.85 13.0005 29.47 13.0005C28.09 13.0005 26.96 11.8705 26.96 10.4905C26.96 9.11047 28.09 7.98047 29.47 7.98047Z" fill="#223C61"/>
<path d="M26.94 25.0005H21.03C19.36 25.0005 18.01 26.3505 18.01 28.0205V34.0005C18.01 34.5505 18.46 35.0005 19.01 35.0005H20.01V41.0005C20.01 41.5505 20.46 42.0005 21.01 42.0005C21.56 42.0005 22.01 41.5505 22.01 41.0005V33.0005H20.01V28.0205C20.01 27.4505 20.47 27.0005 21.03 27.0005H26.94C27.53 27.0005 28 27.4805 28 28.0605V33.0005H26V41.0005C26 41.5505 26.45 42.0005 27 42.0005C27.55 42.0005 28 41.5505 28 41.0005V35.0005H29C29.55 35.0005 30 34.5505 30 34.0005V28.0605C30 26.3705 28.63 25.0005 26.94 25.0005Z" fill="#223C61"/>
<path d="M33 16.0005H30.48C29.93 16.0005 29.48 16.4505 29.48 17.0005C29.48 17.5505 29.93 18.0005 30.48 18.0005H33C34.1 18.0005 35 18.9005 35 20.0005V29.0005H32V41.0005C32 41.5505 32.45 42.0005 33 42.0005C33.55 42.0005 34 41.5505 34 41.0005V31.0005H36C36.55 31.0005 37 30.5505 37 30.0005V20.0005C37 17.7905 35.21 16.0005 33 16.0005Z" fill="#223C61"/>
<path d="M15 16.0005C12.79 16.0005 11 17.8005 11 20.0105L11.04 30.0005C11.04 30.5505 11.49 31.0005 12.04 31.0005H14V41.0005C14 41.5505 14.45 42.0005 15 42.0005C15.55 42.0005 16 41.5505 16 41.0005V29.0005H13L12.97 20.0005C12.97 18.9005 13.87 18.0005 14.97 18.0005H17.58C18.13 18.0005 18.58 17.5505 18.58 17.0005C18.58 16.4505 18.13 16.0005 17.58 16.0005H15Z" fill="#223C61"/>
<path d="M18.51 15.0005C21 15.0005 23.02 12.9805 23.02 10.4905C23.02 8.00047 21 5.98047 18.51 5.98047C16.02 5.98047 14 8.00047 14 10.4905C14 12.9805 16.02 15.0005 18.51 15.0005ZM18.51 7.98047C19.89 7.98047 21.02 9.11047 21.02 10.4905C21.02 11.8705 19.89 13.0005 18.51 13.0005C17.13 13.0005 16 11.8705 16 10.4905C16 9.11047 17.13 7.98047 18.51 7.98047Z" fill="#223C61"/>
</svg>
