<svg width="48" height="48" viewBox="0 0 48 48" fill="none" xmlns="http://www.w3.org/2000/svg">
<path d="M18 16.0095V14.9895C18 14.4395 18.44 13.9995 18.99 13.9995H19.01C19.56 13.9995 20 14.4395 20 14.9895V16.0095C20 16.5595 19.56 16.9995 19.01 16.9995H18.99C18.44 16.9995 18 16.5595 18 16.0095ZM10.99 16.9995H11.01C11.56 16.9995 12 16.5595 12 16.0095V13.9895C12 13.4395 11.56 12.9995 11.01 12.9995H10.99C10.44 12.9995 10 13.4395 10 13.9895V16.0095C10 16.5595 10.44 16.9995 10.99 16.9995ZM15 16.9995C15.55 16.9995 15.99 16.5495 15.99 16.0095V10.9995C15.98 10.4495 15.53 10.0095 14.98 10.0095C14.43 10.0095 13.99 10.4595 13.99 10.9995V16.0095C14 16.5595 14.45 16.9995 14.99 16.9995H15ZM41.88 23.0495C42.49 25.6695 40.51 27.9995 37.99 27.9995C36.13 27.9995 34.58 26.7195 34.13 24.9995H31.92C31.74 26.4595 31.16 27.7895 30.3 28.8995L31.97 30.5695C32.77 30.0995 33.74 29.8695 34.79 30.0895C36.43 30.4295 37.74 31.8095 37.95 33.4695C38.29 36.0995 36.07 38.3095 33.44 37.9695C31.78 37.7495 30.4 36.4395 30.06 34.7995C29.84 33.7495 30.06 32.7795 30.54 31.9795L28.87 30.3095C27.76 31.1695 26.43 31.7395 24.97 31.9295V34.7295C26.42 35.2495 27.47 36.6195 27.47 38.2495C27.47 40.6095 25.29 42.4595 22.84 41.8995C21.48 41.5895 20.37 40.4795 20.07 39.1095C19.58 36.9295 21 34.9695 22.97 34.5695V31.9295C21.51 31.7495 20.17 31.1695 19.07 30.3195L15.67 33.7195C15.96 34.3295 16.07 35.0495 15.85 35.8195C15.53 36.9195 14.58 37.7895 13.45 37.9695C11.42 38.2895 9.69 36.5595 10.01 34.5195C10.19 33.3895 11.06 32.4395 12.16 32.1195C12.93 31.8995 13.64 32.0095 14.25 32.3095L17.65 28.9095C16.79 27.7995 16.21 26.4695 16.03 25.0095H13.83C13.31 27.0195 11.28 28.4295 9 27.8995C7.6 27.5695 6.46 26.4495 6.1 25.0495C5.63 23.1795 6.47 21.4695 7.89 20.6095C6.76 20.0295 5.98 18.8595 5.98 17.5095V9.52953C5.97 7.58953 7.54 6.01953 9.48 6.01953H20.44C20.44 6.01953 20.47 6.01953 20.48 6.01953C20.66 6.01953 20.84 6.04953 21.02 6.06953C21.12 6.08953 21.22 6.10953 21.31 6.12953C21.34 6.12953 21.37 6.14953 21.41 6.15953C21.67 6.23953 21.92 6.33953 22.15 6.46953C22.79 6.82953 23.31 7.37953 23.62 8.03953C23.62 8.03953 23.62 8.03953 23.61 8.03953C23.82 8.48953 23.95 8.97953 23.95 9.50953C23.95 9.50953 23.93 17.9995 23.91 17.9995C23.66 19.6995 22.21 21.0095 20.45 21.0095H18.77C18.26 21.8895 17.95 22.9095 17.95 24.0095C17.95 27.7395 21.38 30.6895 25.25 29.8795C27.53 29.3995 29.37 27.5395 29.83 25.2495C30.42 22.3395 28.88 19.6995 26.49 18.5795C26.15 18.4195 25.96 18.0695 25.96 17.6995C25.96 16.9595 26.73 16.4795 27.4 16.7995C27.92 17.0495 28.41 17.3495 28.86 17.6995L31.39 15.1695C30.96 14.3795 30.8 13.4295 31.15 12.3895C31.56 11.1795 32.63 10.2595 33.89 10.0595C36.26 9.68953 38.28 11.7095 37.91 14.0795C37.71 15.3395 36.79 16.4095 35.58 16.8195C34.54 17.1795 33.59 17.0095 32.8 16.5795L30.27 19.1095C31.13 20.2195 31.7 21.5495 31.88 23.0095H34.09C34.61 20.9995 36.63 19.5995 38.9 20.1195C40.34 20.4495 41.51 21.6195 41.84 23.0595L41.88 23.0495ZM32.99 13.4995C32.99 14.3295 33.66 14.9995 34.49 14.9995C35.32 14.9995 35.99 14.3295 35.99 13.4995C35.99 12.6695 35.32 11.9995 34.49 11.9995C33.66 11.9995 32.99 12.6695 32.99 13.4995ZM14 34.9995C14 34.4495 13.55 33.9995 13 33.9995C12.45 33.9995 12 34.4495 12 34.9995C12 35.5495 12.45 35.9995 13 35.9995C13.55 35.9995 14 35.5495 14 34.9995ZM12 23.9995C12 22.8995 11.1 21.9995 10 21.9995C8.9 21.9995 8 22.8995 8 23.9995C8 25.0995 8.9 25.9995 10 25.9995C11.1 25.9995 12 25.0995 12 23.9995ZM16.59 20.9995H12.62C13.21 21.5195 13.66 22.2095 13.86 22.9995H16.06C16.15 22.2995 16.33 21.6295 16.59 20.9995ZM20.5 18.9995C21.29 18.9995 21.93 18.3995 22 17.6395V16.2595C22 16.2595 22 16.2595 22.01 16.2595V13.4495H22V10.0095V9.98953V9.49953C22 8.66953 21.32 7.98953 20.49 7.98953H9.5C8.66 7.98953 7.99 8.65953 7.99 9.49953V17.4895C8 18.3195 8.68 18.9995 9.52 18.9995H20.51H20.5ZM23.75 36.4995C22.79 36.4995 22 37.2895 22 38.2495C22 39.2095 22.79 39.9995 23.75 39.9995C24.71 39.9995 25.5 39.2095 25.5 38.2495C25.5 37.2895 24.71 36.4995 23.75 36.4995ZM32 33.9995C32 35.0995 32.9 35.9995 34 35.9995C35.1 35.9995 36 35.0995 36 33.9995C36 32.8995 35.1 31.9995 34 31.9995C32.9 31.9995 32 32.8995 32 33.9995ZM40 23.9995C40 22.8995 39.1 21.9995 38 21.9995C36.9 21.9995 36 22.8995 36 23.9995C36 25.0995 36.9 25.9995 38 25.9995C39.1 25.9995 40 25.0995 40 23.9995ZM27.29 12.7095C28.78 11.2195 28.78 8.78953 27.29 7.29953C26.9 6.90953 26.27 6.90953 25.88 7.29953C25.49 7.68953 25.49 8.31953 25.88 8.70953C26.59 9.41953 26.59 10.5795 25.88 11.2995C25.49 11.6895 25.49 12.3195 25.88 12.7095C26.08 12.9095 26.33 12.9995 26.59 12.9995C26.85 12.9995 27.1 12.8995 27.3 12.7095H27.29Z" fill="#223C61"/>
</svg>
