<svg width="48" height="48" viewBox="0 0 48 48" fill="none" xmlns="http://www.w3.org/2000/svg">
<path d="M28 29H33C33.55 29 34 29.45 34 30C34 30.55 33.55 31 33 31H28C27.45 31 27 30.55 27 30C27 29.45 27.45 29 28 29ZM21 23C21 25.21 19.34 27 17.3 27H15V29.99C15 30.54 14.55 30.99 14 30.99C13.45 30.99 13 30.54 13 29.99V19.99C13 19.44 13.45 18.99 14 18.99H17.3C19.34 18.99 21 20.79 21 22.99V23ZM19 23C19 21.9 18.23 21 17.28 21H15V24.99H17.28C18.23 24.99 19 24.09 19 22.99V23ZM28 26H35C35.55 26 36 25.55 36 25C36 24.45 35.55 24 35 24H28C27.45 24 27 24.45 27 25C27 25.55 27.45 26 28 26ZM28 21H35C35.55 21 36 20.55 36 20C36 19.45 35.55 19 35 19H28C27.45 19 27 19.45 27 20C27 20.55 27.45 21 28 21ZM42 14.99V33.02C42 35.22 40.21 37.01 38.01 37.01H9.99C7.79 37.01 6 35.22 6 33.02V14.99C6 12.79 7.79 11 9.99 11H38.02C40.22 11 42.01 12.79 42.01 14.99H42ZM40 14.99C40 13.89 39.11 13 38.01 13H25V16C25 16.55 24.55 17 24 17C23.45 17 23 16.55 23 16V13H9.99C8.89 13 8 13.89 8 14.99V33.02C8 34.12 8.89 35.01 9.99 35.01H38.02C39.12 35.01 40.01 34.12 40.01 33.02V14.99H40Z" fill="#223C61"/>
</svg>
