<svg width="48" height="48" viewBox="0 0 48 48" fill="none" xmlns="http://www.w3.org/2000/svg">
<path d="M18.98 34.2195V34.3695C18.98 35.7995 18.43 37.1295 17.5 38.0595C15.97 39.5895 10.74 40.5795 8.20999 40.9795C7.50999 41.0895 6.90999 40.4895 7.01999 39.7895C7.41999 37.2595 8.41998 32.0195 9.93998 30.4995C10.85 29.5895 12.12 29.0095 13.55 29.0095C13.55 29.0095 13.55 29.0095 13.56 29.0095C13.56 29.0095 13.57 29.0095 13.58 29.0095C14.17 29.0095 14.64 29.4895 14.64 30.0695C14.64 30.6495 14.17 31.1195 13.6 31.1295V31.1495H13.56C12.76 31.1495 12.02 31.4495 11.46 32.0095C10.78 32.6895 9.95999 35.6095 9.38999 38.6095C12.4 38.0395 15.31 37.2195 15.99 36.5395C16.55 35.9795 16.86 35.2195 16.85 34.3995C16.87 34.3995 16.85 34.3995 16.86 34.2095C16.9 33.6195 17.34 33.1495 17.92 33.1495C18.5 33.1495 18.98 33.6295 18.98 34.2095V34.2195ZM31.99 16.0195C33.35 17.3795 33.35 19.5995 31.99 20.9595C31.31 21.6395 30.41 21.9795 29.52 21.9795C28.63 21.9795 27.73 21.6395 27.05 20.9595C25.69 19.5995 25.69 17.3795 27.05 16.0195C27.73 15.3395 28.63 14.9995 29.52 14.9995C30.41 14.9995 31.31 15.3395 31.99 16.0195ZM31.06 18.4895C31.06 18.0795 30.9 17.6895 30.61 17.3995C30.32 17.1095 29.93 16.9495 29.52 16.9495C29.11 16.9495 28.72 17.1095 28.43 17.3995C28.14 17.6895 27.98 18.0795 27.98 18.4895C27.98 18.8995 28.14 19.2895 28.43 19.5795C28.72 19.8695 29.11 20.0295 29.52 20.0295C29.93 20.0295 30.32 19.8695 30.61 19.5795C30.9 19.2895 31.06 18.8995 31.06 18.4895ZM35.19 24.2995L31.43 28.0795L33.69 33.5595C33.84 33.9295 33.76 34.3595 33.47 34.6495L27.31 40.8095C26.81 41.3095 25.96 41.1495 25.68 40.4895L23.98 36.4695L23.49 34.9995L21.85 33.3595L14.68 26.1895L13.04 24.5495L7.57999 22.3495C6.91999 22.0795 6.73999 21.2195 7.24999 20.7195L13.39 14.5795C13.68 14.2895 14.1 14.2095 14.48 14.3595L19.96 16.6195L23.7 12.8595C28.41 8.14953 32.65 7.01953 35.63 7.01953C38.37 7.01953 40.05 7.96953 40.05 7.96953C40.05 7.96953 44.22 15.2895 35.21 24.3095L35.19 24.2995ZM18.44 18.1795L14.33 16.4895L9.76999 21.0495L13.78 22.6695L13.9 22.7195L18.43 18.1895L18.44 18.1795ZM29.85 29.5795L25.33 34.0995L25.42 34.3695L25.88 35.7695L26.95 38.3095L31.54 33.7195L29.84 29.5895L29.85 29.5795ZM33.75 22.8695C40.23 16.3895 39.1 11.1595 38.5 9.50953C37.93 9.30953 36.92 9.03953 35.61 9.03953C32.18 9.03953 28.55 10.8495 25.12 14.2795L21.38 18.0395L20.42 18.9995H20.39L15.36 24.0095L16.1 24.7495L23.27 31.9195L24 32.6495L29.03 27.6195L29.99 26.6495L33.75 22.8695Z" fill="#223C61"/>
</svg>
