<svg width="48" height="48" viewBox="0 0 48 48" fill="none" xmlns="http://www.w3.org/2000/svg">
<path d="M30 14.9602H31.07C31 14.3002 31 13.6202 31.07 12.9602H29.99C29.44 12.9602 28.99 12.5102 28.99 11.9602C28.99 11.4102 29.44 10.9602 29.99 10.9602H31.51C31.83 10.0402 32.31 9.17016 32.94 8.42016C35.2 5.73016 38.74 5.18016 41.55 7.07016C42.01 7.38016 42.13 8.00016 41.82 8.46016C41.51 8.92016 40.89 9.04016 40.43 8.73016C38.5 7.43016 36.05 7.83016 34.47 9.71016C34.15 10.0902 33.9 10.5202 33.68 10.9702H37.99C38.54 10.9702 38.99 11.4202 38.99 11.9702C38.99 12.5202 38.54 12.9702 37.99 12.9702H33.06C32.97 13.6302 32.97 14.3102 33.06 14.9702H37.98C38.53 14.9702 38.98 15.4202 38.98 15.9702C38.98 16.5202 38.53 16.9702 37.98 16.9702H33.68C33.91 17.4502 34.18 17.9102 34.54 18.3102C36.14 20.1402 38.5 20.5002 40.43 19.2002C40.89 18.8902 41.51 19.0102 41.82 19.4702C42.13 19.9302 42.01 20.5502 41.55 20.8602C40.44 21.6102 39.21 21.9702 37.99 21.9702C36.18 21.9702 34.39 21.1702 33.03 19.6202C32.35 18.8402 31.84 17.9302 31.5 16.9602H29.98C29.43 16.9602 28.98 16.5102 28.98 15.9602C28.98 15.4102 29.43 14.9602 29.98 14.9602H30ZM42 37.9902C42 38.5402 41.55 38.9902 41 38.9902H25.85C25.4 40.7102 23.85 41.9802 22 41.9802C20.15 41.9802 18.6 40.7002 18.15 38.9902H13.01C12.46 38.9902 12.01 38.5402 12.01 37.9902V25.9902C12.01 23.7802 13.8 21.9902 16.01 21.9902H20.01V22.0102H21.15C23.2 20.5402 24.66 18.4002 25.25 15.9802H22.32H21.89C21.52 15.9802 21.16 16.0502 20.81 16.1902L18.44 18.3502C18.36 18.4202 18.28 18.4802 18.18 18.5202C17.53 18.8202 16.84 18.9702 16.03 18.9702H7.90001L8.01001 21.9602H10.03C10.58 21.9602 11.03 22.4102 11.03 22.9602C11.03 23.5102 10.58 23.9602 10.03 23.9602H7.01001C6.46001 23.9602 6.01001 23.5102 6.01001 22.9602V17.9702C6.01001 17.4202 6.46001 16.9702 7.01001 16.9702H10.22L11.63 11.9702H10.92C10.37 11.9702 9.92001 11.5202 9.92001 10.9702C9.92001 10.4202 10.37 9.97017 10.92 9.97017H19.67C20.08 9.97017 20.44 10.2202 20.59 10.5902L21.98 13.9702C21.98 13.9702 26.55 13.9702 26.59 13.9702C27.13 13.9702 27.5 14.5602 27.43 15.1102C27.09 17.7102 25.92 20.1102 24.16 22.0002H27.99V21.9802H30.92C33.17 21.9802 34.99 23.8002 34.99 26.0502V36.9802H40.99C41.54 36.9802 41.99 37.4302 41.99 37.9802L42 37.9902ZM19.99 14.3902L19 11.9902H13.7L12.28 16.9902H16.12C16.49 16.9902 16.85 16.9202 17.2 16.7802L19.57 14.6202C19.65 14.5502 19.73 14.4902 19.83 14.4502C19.88 14.4302 19.93 14.4202 19.98 14.4002L19.99 14.3902ZM23.99 37.9902C23.99 36.8902 23.1 36.0002 22 36.0002C20.9 36.0002 20.01 36.8902 20.01 37.9902C20.01 39.0902 20.9 39.9802 22 39.9802C23.1 39.9802 23.99 39.0902 23.99 37.9902ZM33 26.0102C33 24.9002 32.1 24.0002 30.99 24.0002H16.03C14.91 24.0002 14 24.9102 14 26.0302V37.0002H18.14C18.59 35.2802 20.14 34.0002 21.99 34.0002C23.84 34.0002 25.4 35.2802 25.84 37.0002H32.99V26.0102H33ZM31 27.0102V32.0102C31 32.5602 30.55 33.0102 30 33.0102H24C23.45 33.0102 23 32.5602 23 32.0102V27.0102C23 26.4602 23.45 26.0102 24 26.0102H30C30.55 26.0102 31 26.4602 31 27.0102ZM29 28.0102H25V31.0102H29V28.0102Z" fill="#223C61"/>
</svg>
