<svg width="48" height="48" viewBox="0 0 48 48" fill="none" xmlns="http://www.w3.org/2000/svg">
<path d="M25.2 13.9492C27.41 13.9492 29.2 12.1592 29.2 9.94922C29.2 7.73922 27.41 5.94922 25.2 5.94922C22.99 5.94922 21.2 7.73922 21.2 9.94922C21.2 12.1592 22.99 13.9492 25.2 13.9492ZM25.2 7.94922C26.3 7.94922 27.2 8.84922 27.2 9.94922C27.2 11.0492 26.3 11.9492 25.2 11.9492C24.1 11.9492 23.2 11.0492 23.2 9.94922C23.2 8.84922 24.1 7.94922 25.2 7.94922ZM17.59 31.7692L14.97 41.1992C14.85 41.6392 14.44 41.9392 14.01 41.9392C13.92 41.9392 13.83 41.9292 13.74 41.8992C13.21 41.7492 12.89 41.1992 13.04 40.6692L15.66 31.2392C15.81 30.7092 16.35 30.3892 16.89 30.5392C17.42 30.6892 17.74 31.2392 17.59 31.7692ZM34.96 21.2392L29.78 41.4292C29.57 41.8492 29.11 42.0892 28.64 41.9592C28.11 41.8192 27.79 41.2692 27.93 40.7392L32.68 21.9692H29.3C29 21.9692 28.72 21.8392 28.52 21.6192L24.82 17.5892C24.13 16.8292 22.27 16.9092 21.67 16.9992L17.14 18.6892C17.04 18.7292 16.96 18.7792 16.89 18.8292L14.98 26.2292C14.84 26.7592 14.29 27.0792 13.76 26.9392C13.23 26.7992 12.91 26.2492 13.05 25.7192L14.94 18.2992C15.11 17.6592 15.58 17.1392 16.2 16.8992L17.55 16.3892V16.4192L21.31 15.0492C21.73 14.9792 24.78 14.5692 26.32 16.2692C26.32 16.2692 28.83 18.9592 29.74 19.9892H33.99C34.65 19.9892 35.12 20.6192 34.95 21.2492L34.96 21.2392ZM24.9 34.1492L22.93 41.3292C22.81 41.7792 22.41 42.0692 21.97 42.0692C21.88 42.0692 21.8 42.0592 21.71 42.0392C21.18 41.8992 20.86 41.3492 21 40.8092L22.97 33.6292C23.08 33.2092 22.9 32.7492 22.53 32.5192L18.4 29.9792C18.34 29.9392 18.28 29.8992 18.23 29.8492C17.17 28.8392 16.75 27.3392 17.13 25.9292L18.59 20.4492C18.73 19.9192 19.29 19.6092 19.82 19.7492C20.35 19.8992 20.67 20.4492 20.52 20.9792L19.06 26.4492C18.88 27.1192 19.06 27.8392 19.55 28.3392L23.58 30.8192C24.7 31.5092 25.25 32.8792 24.9 34.1492ZM25.92 21.9992L24.16 27.9892C24.03 28.4192 23.63 28.7092 23.2 28.7092C23.11 28.7092 23.01 28.6992 22.91 28.6692C22.38 28.5092 22.08 27.9592 22.24 27.4292L24 21.4392C24.16 20.9092 24.71 20.6092 25.24 20.7692C25.77 20.9292 26.07 21.4792 25.91 22.0092L25.92 21.9992Z" fill="#223C61"/>
</svg>
