<svg width="20" height="20" viewBox="0 0 20 20" fill="none" xmlns="http://www.w3.org/2000/svg">
<rect width="20" height="20" rx="10" fill="#3737EE"/>
<path d="M6.322 5.316V11.658C6.322 13.716 5.216 14.584 3.326 14.584C3.102 14.584 2.794 14.57 2.612 14.528V12.974C2.822 13.002 3.088 13.03 3.34 13.03C4.04 13.03 4.502 12.554 4.502 11.63V5.316H6.322ZM11.1739 14.5H8.58388V5.316H11.2579C14.4219 5.316 16.1439 6.898 16.1439 9.642C16.1439 12.974 14.2539 14.5 11.1739 14.5ZM10.4039 6.8V13.016H11.2579C13.0639 13.016 14.2259 12.064 14.2259 9.726C14.2259 7.822 13.0499 6.8 11.1459 6.8H10.4039Z" fill="#223C61"/>
</svg>
