<svg width="16" height="20" viewBox="0 0 16 20" fill="none" xmlns="http://www.w3.org/2000/svg">
<path
fillRule="evenodd"
clipRule="evenodd"
d="M12.0882 10.8798C12.8082 10.8898 13.2812 11.0008 13.4942 11.2108L13.4952 11.2088C13.5712 11.2838 13.6412 11.3918 13.6522 11.4798C13.6902 11.7758 13.6612 12.0648 13.5222 12.2748C13.4512 12.3818 13.3352 12.4598 13.1972 12.4968C13.1082 12.5208 12.9982 12.5328 12.8702 12.5328C12.1522 12.5328 11.0132 12.1708 10.0872 11.6498C8.8722 11.8318 7.4862 12.1618 6.2682 12.5578C5.2132 14.3988 4.4472 15.2198 3.7882 15.2198C3.6652 15.2198 3.5452 15.1908 3.4312 15.1338L3.1682 15.0018C3.0042 14.9078 2.9802 14.7048 3.0122 14.5458C3.1142 14.0478 3.7272 13.4208 4.6532 12.8678C4.7622 12.8018 5.2272 12.5548 5.2472 12.5448L5.5182 12.4008C5.7812 11.9508 6.0712 11.4198 6.3912 10.7938L6.4312 10.7168C6.7352 10.1218 7.0792 9.44678 7.3542 8.77678L7.4522 8.53778C7.0692 7.07178 6.8572 5.93979 7.0622 5.18279C7.1292 4.94078 7.3862 4.77979 7.7022 4.77979L7.8732 4.78479C8.1562 4.77279 8.3372 4.99779 8.4292 5.20978L8.4582 5.28579C8.4822 5.35478 8.4902 5.38078 8.5022 5.46979C8.5922 6.11979 8.2532 8.04279 8.2532 8.04279C8.23993 8.10254 8.22527 8.16091 8.20924 8.22477L8.1992 8.26478C8.5112 9.12179 9.0132 9.90079 9.6142 10.4618C9.8372 10.6708 10.1222 10.8448 10.3982 11.0038C11.0152 10.9178 11.6012 10.8748 12.0882 10.8798ZM3.64564 14.7186C3.76636 14.3892 4.24206 13.7401 4.9452 13.1638C4.9892 13.1278 5.0982 13.0258 5.1982 12.9308C4.46254 14.1042 3.96965 14.5724 3.64564 14.7186ZM7.8142 5.11979C8.0262 5.11979 8.1472 5.65379 8.1572 6.15479C8.1672 6.65579 8.0502 7.00778 7.9052 7.26779C7.7852 6.88278 7.7262 6.27579 7.7262 5.87879C7.7262 5.87879 7.7172 5.11979 7.8142 5.11979ZM6.5702 11.9608C6.71812 11.6969 6.8713 11.4176 7.0282 11.1218C7.4112 10.3978 7.6522 9.83179 7.8322 9.36679C8.1902 10.0178 8.6362 10.5718 9.1602 11.0158C9.2252 11.0708 9.2952 11.1268 9.3672 11.1818C8.30176 11.3927 7.38089 11.649 6.5702 11.9608ZM13.2902 11.9008C13.2252 11.9418 13.0392 11.9648 12.9202 11.9648C12.5342 11.9648 12.0562 11.7888 11.3872 11.5008C11.6442 11.4818 11.8802 11.4718 12.0922 11.4718L12.1152 11.4718C12.4839 11.4717 12.6018 11.4717 12.9722 11.5668C13.3502 11.6638 13.3552 11.8598 13.2902 11.8998V11.9008Z"
fill="#223C61"
/>
<path
fillRule="evenodd"
clipRule="evenodd"
d="M11 0H2C0.9 0 0 0.9 0 2V18C0 18.5304 0.210714 19.0391 0.585786 19.4142C0.960859 19.7893 1.46957 20 2 20H14C14.5304 20 15.0391 19.7893 15.4142 19.4142C15.7893 19.0391 16 18.5304 16 18V5C15.9962 4.73623 15.8884 4.48463 15.7 4.3L11.7 0.3C11.5154 0.111586 11.2638 0.00375705 11 0ZM11 5V2.41L13.59 5H11ZM11 7H14V18H2V2H9V5C9 5.53043 9.21071 6.03914 9.58579 6.41421C9.96086 6.78929 10.4696 7 11 7Z"
fill="#223C61"
/>
</svg>