<svg width="24" height="24" viewBox="0 0 24 24" fill="none" xmlns="http://www.w3.org/2000/svg">
<path fill-rule="evenodd" clip-rule="evenodd" d="M6.70711 3.29289C7.09763 3.68342 7.09763 4.31658 6.70711 4.70711L5.41421 6H21C21.5523 6 22 6.44772 22 7C22 7.55228 21.5523 8 21 8H5.41421L6.70711 9.29289C7.09763 9.68342 7.09763 10.3166 6.70711 10.7071C6.31658 11.0976 5.68342 11.0976 5.29289 10.7071L2.29289 7.70711C1.90237 7.31658 1.90237 6.68342 2.29289 6.29289L5.29289 3.29289C5.68342 2.90237 6.31658 2.90237 6.70711 3.29289ZM17.2929 13.2929C17.6834 12.9024 18.3166 12.9024 18.7071 13.2929L21.7071 16.2929C22.0976 16.6834 22.0976 17.3166 21.7071 17.7071L18.7071 20.7071C18.3166 21.0976 17.6834 21.0976 17.2929 20.7071C16.9024 20.3166 16.9024 19.6834 17.2929 19.2929L18.5858 18H3C2.44772 18 2 17.5523 2 17C2 16.4477 2.44772 16 3 16H18.5858L17.2929 14.7071C16.9024 14.3166 16.9024 13.6834 17.2929 13.2929Z" fill="#223C61"/>
</svg>
