<svg width="24" height="24" viewBox="0 0 24 24" fill="none" xmlns="http://www.w3.org/2000/svg">
<path fill-rule="evenodd" clip-rule="evenodd" d="M12 3C9.23858 3 7 5.23858 7 8C7 10.3151 7.6274 12.3661 8.58932 13.8091C9.5559 15.2591 10.7814 16 12 16C13.2186 16 14.4441 15.2591 15.4107 13.8091C16.3726 12.3661 17 10.3151 17 8C17 5.23858 14.7614 3 12 3ZM5 8C5 4.13401 8.13401 1 12 1C15.866 1 19 4.13401 19 8C19 10.6549 18.2844 13.1039 17.0748 14.9184C16.0667 16.4307 14.6599 17.5696 13 17.9013V18C13 19.6569 11.6569 21 10 21H7C6.44772 21 6 21.4477 6 22C6 22.5523 5.55228 23 5 23C4.44772 23 4 22.5523 4 22C4 20.3431 5.34315 19 7 19H10C10.5523 19 11 18.5523 11 18V17.9013C9.3401 17.5696 7.9333 16.4307 6.92518 14.9184C5.7156 13.1039 5 10.6549 5 8ZM11 6C11 5.44772 11.4477 5 12 5C13.6569 5 15 6.34315 15 8C15 8.55228 14.5523 9 14 9C13.4477 9 13 8.55228 13 8C13 7.44772 12.5523 7 12 7C11.4477 7 11 6.55228 11 6Z" fill="#223C61"/>
</svg>
