<svg width="24" height="24" viewBox="0 0 24 24" fill="none" xmlns="http://www.w3.org/2000/svg">
<path fill-rule="evenodd" clip-rule="evenodd" d="M4 6.59964V17.4257C6.25574 16.5827 8.74426 16.5827 11 17.4257V6.59964C8.79157 5.52473 6.20843 5.52473 4 6.59964ZM13 6.59964V17.4257C15.2557 16.5827 17.7443 16.5827 20 17.4257V6.59964C17.7916 5.52473 15.2084 5.52473 13 6.59964ZM12 4.86311C9.00218 3.35194 5.42931 3.44197 2.5 5.1332C2.1906 5.31184 2 5.64196 2 5.99923V18.9992C2 19.3565 2.1906 19.6866 2.5 19.8653C2.8094 20.0439 3.1906 20.0439 3.5 19.8653C5.97521 18.4362 9.02479 18.4362 11.5 19.8653C11.8094 20.0439 12.1906 20.0439 12.5 19.8653C14.9752 18.4362 18.0248 18.4362 20.5 19.8653C20.8094 20.0439 21.1906 20.0439 21.5 19.8653C21.8094 19.6866 22 19.3565 22 18.9992V5.99923C22 5.64196 21.8094 5.31184 21.5 5.1332C18.5707 3.44197 14.9978 3.35194 12 4.86311Z" fill="#223C61"/>
</svg>
