<svg width="24" height="24" viewBox="0 0 24 24" fill="none" xmlns="http://www.w3.org/2000/svg">
<path fill-rule="evenodd" clip-rule="evenodd" d="M19 4.00058C19.5523 4.00058 20 4.44829 20 5.00058V14.0006C20 14.5529 19.5523 15.0006 19 15.0006C18.4477 15.0006 18 14.5529 18 14.0006V5.00058C18 4.44829 18.4477 4.00058 19 4.00058Z" fill="#223C61"/>
<path fill-rule="evenodd" clip-rule="evenodd" d="M11.3 5.71472C9.74463 4.19015 7.25537 4.19015 5.7 5.71472C5.30559 6.10132 4.67246 6.09499 4.28586 5.70057C3.89926 5.30616 3.90559 4.67303 4.3 4.28643C6.63306 1.99957 10.3669 1.99957 12.7 4.28643C14.2554 5.811 16.7446 5.811 18.3 4.28643C18.6944 3.89983 19.3275 3.90616 19.7141 4.30058C20.1007 4.69499 20.0944 5.32812 19.7 5.71472C17.3669 8.00158 13.6331 8.00158 11.3 5.71472Z" fill="#223C61"/>
<path fill-rule="evenodd" clip-rule="evenodd" d="M5 4.00058C5.55228 4.00058 6 4.44829 6 5.00058V21.0006C6 21.5529 5.55228 22.0006 5 22.0006C4.44772 22.0006 4 21.5529 4 21.0006V5.00058C4 4.44829 4.44772 4.00058 5 4.00058Z" fill="#223C61"/>
<path fill-rule="evenodd" clip-rule="evenodd" d="M11.3 14.7147C9.74463 13.1901 7.25537 13.1901 5.7 14.7147C5.30559 15.1013 4.67246 15.095 4.28586 14.7006C3.89926 14.3062 3.90559 13.673 4.3 13.2864C6.63306 10.9996 10.3669 10.9996 12.7 13.2864C14.2554 14.811 16.7446 14.811 18.3 13.2864C18.6944 12.8998 19.3275 12.9062 19.7141 13.3006C20.1007 13.695 20.0944 14.3281 19.7 14.7147C17.3669 17.0016 13.6331 17.0016 11.3 14.7147Z" fill="#223C61"/>
</svg>
