<svg width="24" height="24" viewBox="0 0 24 24" fill="none" xmlns="http://www.w3.org/2000/svg">
<path fill-rule="evenodd" clip-rule="evenodd" d="M12 9.00068C10.8954 9.00068 10 9.89612 10 11.0007C10 12.1053 10.8954 13.0007 12 13.0007C13.1046 13.0007 14 12.1053 14 11.0007C14 9.89612 13.1046 9.00068 12 9.00068ZM8 11.0007C8 8.79155 9.79086 7.00068 12 7.00068C14.2091 7.00068 16 8.79155 16 11.0007C16 13.2098 14.2091 15.0007 12 15.0007C9.79086 15.0007 8 13.2098 8 11.0007Z" fill="#223C61"/>
<path fill-rule="evenodd" clip-rule="evenodd" d="M16.9497 6.05119C14.216 3.31757 9.78396 3.31757 7.05029 6.05119C4.31667 8.78477 4.31656 13.2168 7.05002 15.9505L11.2937 20.1932C11.6842 20.5833 12.3168 20.5833 12.7073 20.1932L16.9499 15.9506C19.6834 13.2169 19.6834 8.78479 16.9497 6.05119ZM18.3641 17.3648C21.8787 13.85 21.8786 8.15161 18.3639 4.63696C14.8492 1.12232 9.1508 1.12232 5.63609 4.63696C2.12139 8.15161 2.12129 13.85 5.63588 17.3648L9.87998 21.6079C11.0513 22.778 12.9494 22.7783 14.1208 21.6081L18.3641 17.3648Z" fill="#223C61"/>
</svg>
