<svg width="24" height="24" viewBox="0 0 24 24" fill="none" xmlns="http://www.w3.org/2000/svg">
<path fill-rule="evenodd" clip-rule="evenodd" d="M12 6C12 5.44772 12.4477 5 13 5H15C15.3788 5 15.725 5.214 15.8944 5.55279L19.1189 12.0017C21.273 12.0646 23 13.8306 23 16C23 18.2091 21.2091 20 19 20C16.7909 20 15 18.2091 15 16C15 14.4716 15.8572 13.1435 17.117 12.47L16.5594 11.3548L13.2071 14.7071C13.0196 14.8946 12.7652 15 12.5 15H8.87398C8.95625 15.3196 9 15.6547 9 16C9 18.2091 7.20914 20 5 20C2.79086 20 1 18.2091 1 16C1 13.7909 2.79086 12 5 12C5.87124 12 6.67742 12.2785 7.33435 12.7514L9.08579 11H6C5.44772 11 5 10.5523 5 10C5 9.44772 5.44772 9 6 9H15.382L14.382 7H13C12.4477 7 12 6.55228 12 6ZM14.0858 11H11.9142L9.91421 13H12.0858L14.0858 11ZM5 14C3.89543 14 3 14.8954 3 16C3 17.1046 3.89543 18 5 18C6.10457 18 7 17.1046 7 16C7 14.8954 6.10457 14 5 14ZM19 14C17.8954 14 17 14.8954 17 16C17 17.1046 17.8954 18 19 18C20.1046 18 21 17.1046 21 16C21 14.8954 20.1046 14 19 14Z" fill="#223C61"/>
</svg>
