<svg width="24" height="24" viewBox="0 0 24 24" fill="none" xmlns="http://www.w3.org/2000/svg">
<path fill-rule="evenodd" clip-rule="evenodd" d="M4 5.5C4 4.67157 4.67157 4 5.5 4H9.5C10.3284 4 11 4.67157 11 5.5V9.5C11 10.3284 10.3284 11 9.5 11H5.5C4.67157 11 4 10.3284 4 9.5V5.5ZM6 6V9H9V6H6ZM17 5C17.5523 5 18 5.44772 18 6V15.5858L19.2929 14.2929C19.6834 13.9024 20.3166 13.9024 20.7071 14.2929C21.0976 14.6834 21.0976 15.3166 20.7071 15.7071L17.7071 18.7071C17.3166 19.0976 16.6834 19.0976 16.2929 18.7071L13.2929 15.7071C12.9024 15.3166 12.9024 14.6834 13.2929 14.2929C13.6834 13.9024 14.3166 13.9024 14.7071 14.2929L16 15.5858V6C16 5.44772 16.4477 5 17 5ZM4 14.5C4 13.6716 4.67157 13 5.5 13H9.5C10.3284 13 11 13.6716 11 14.5V18.5C11 19.3284 10.3284 20 9.5 20H5.5C4.67157 20 4 19.3284 4 18.5V14.5ZM6 15V18H9V15H6Z" fill="#223C61"/>
</svg>
