<svg width="24" height="24" viewBox="0 0 24 24" fill="none" xmlns="http://www.w3.org/2000/svg">
<path fill-rule="evenodd" clip-rule="evenodd" d="M17 4C16.4477 4 16 4.44772 16 5C16 5.55228 16.4477 6 17 6C17.5523 6 18 5.55228 18 5C18 4.44772 17.5523 4 17 4ZM18 7.82929V8C18 8.55228 17.5523 9 17 9H15.5C14.9477 9 14.5 9.44772 14.5 10C14.5 10.5523 14.9477 11 15.5 11H17C18.6569 11 20 9.65685 20 8V5C20 3.34315 18.6569 2 17 2C15.3431 2 14 3.34315 14 5C14 6.65685 15.3431 8 17 8C17.3506 8 17.6872 7.93985 18 7.82929ZM7 5C7.55228 5 8 5.44772 8 6V15.5858L9.29289 14.2929C9.68342 13.9024 10.3166 13.9024 10.7071 14.2929C11.0976 14.6834 11.0976 15.3166 10.7071 15.7071L7.70711 18.7071C7.31658 19.0976 6.68342 19.0976 6.29289 18.7071L3.29289 15.7071C2.90237 15.3166 2.90237 14.6834 3.29289 14.2929C3.68342 13.9024 4.31658 13.9024 4.70711 14.2929L6 15.5858V6C6 5.44772 6.44772 5 7 5ZM17 15C16.4477 15 16 15.4477 16 16V19C16 19.5523 16.4477 20 17 20C17.5523 20 18 19.5523 18 19V16C18 15.4477 17.5523 15 17 15ZM14 16C14 14.3431 15.3431 13 17 13C18.6569 13 20 14.3431 20 16V19C20 20.6569 18.6569 22 17 22C15.3431 22 14 20.6569 14 19V16Z" fill="#223C61"/>
</svg>
