<svg width="24" height="24" viewBox="0 0 24 24" fill="none" xmlns="http://www.w3.org/2000/svg">
<path fill-rule="evenodd" clip-rule="evenodd" d="M11.5528 5.10557C11.8343 4.96481 12.1657 4.96481 12.4472 5.10557L20.4472 9.10557C20.786 9.27496 21 9.62123 21 10C21 10.3788 20.786 10.725 20.4472 10.8944L12.4472 14.8944C12.1657 15.0352 11.8343 15.0352 11.5528 14.8944L3.55278 10.8944C3.214 10.725 3 10.3788 3 10C3 9.62123 3.214 9.27496 3.55278 9.10557L11.5528 5.10557ZM6.23607 10L12 12.882L17.7639 10L12 7.11803L6.23607 10ZM3.10557 13.5528C3.35256 13.0588 3.95323 12.8586 4.44721 13.1056L12 16.882L19.5528 13.1056C20.0468 12.8586 20.6474 13.0588 20.8944 13.5528C21.1414 14.0468 20.9412 14.6474 20.4472 14.8944L12.4472 18.8944C12.1657 19.0352 11.8343 19.0352 11.5528 18.8944L3.55278 14.8944C3.05881 14.6474 2.85858 14.0468 3.10557 13.5528Z" fill="#223C61"/>
</svg>
