<svg width="24" height="24" viewBox="0 0 24 24" fill="none" xmlns="http://www.w3.org/2000/svg">
<path d="M12.5829 4.88572C12.9733 4.49516 13.6065 4.49512 13.9971 4.88562L21.1141 12.0016C21.6815 12.5689 22.0002 13.3384 22.0002 14.1408C22.0002 14.9431 21.6815 15.7126 21.1141 16.2799L18.2801 19.1139C17.8896 19.5044 17.2564 19.5044 16.8659 19.1139C16.4754 18.7234 16.4754 18.0902 16.8659 17.6997L19.6999 14.8657C19.8922 14.6734 20.0002 14.4126 20.0002 14.1408C20.0002 13.8689 19.8922 13.6082 19.7 13.4159L12.583 6.29993C12.1924 5.90943 12.1924 5.27627 12.5829 4.88572Z" fill="#223C61"/>
<path d="M5.99001 7.99976C5.43772 7.99976 4.99001 8.44747 4.99001 8.99976C4.99001 9.55204 5.43772 9.99976 5.99001 9.99976H6.00001C6.55229 9.99976 7.00001 9.55204 7.00001 8.99976C7.00001 8.44747 6.55229 7.99976 6.00001 7.99976H5.99001Z" fill="#223C61"/>
<path fill-rule="evenodd" clip-rule="evenodd" d="M2 8.02476C2 6.35409 3.35434 4.99976 5.025 4.99976H7.859C8.66079 5.00007 9.43005 5.31868 9.99705 5.88559L16.114 12.0016C16.6814 12.5689 17.0002 13.3384 17.0002 14.1408C17.0002 14.9431 16.6814 15.7126 16.1141 16.2799L13.2802 19.1138C12.7128 19.6812 11.9434 20 11.141 20C10.3386 20 9.56915 19.6812 9.00184 19.1138L2.88589 12.9979C2.31815 12.4301 2 11.6607 2 10.8588V8.02476ZM5.025 6.99976C4.45891 6.99976 4 7.45866 4 8.02476V10.8588C4 11.1308 4.10785 11.3914 4.30011 11.5836L10.4161 17.6996C10.6083 17.8919 10.8691 18 11.141 18C11.4129 18 11.6736 17.892 11.8658 17.6997L14.6999 14.8656C14.8922 14.6734 15.0002 14.4126 15.0002 14.1408C15.0002 13.8689 14.8922 13.6081 14.7 13.4159L8.58295 7.29992C8.39092 7.10792 8.13054 6.99996 7.859 6.99976H5.025Z" fill="#223C61"/>
</svg>
