<svg width="24" height="24" viewBox="0 0 24 24" fill="none" xmlns="http://www.w3.org/2000/svg">
<path fill-rule="evenodd" clip-rule="evenodd" d="M16.9627 2.99976C18.5703 2.89264 19.6371 4.33594 19.9736 5.77152C19.9761 5.78219 19.9784 5.7929 19.9806 5.80364L20.9806 10.8036C20.9935 10.8682 21 10.9339 21 10.9998C21 12.6566 19.6569 13.9998 18 13.9998H16V17.9998C16 19.6566 14.6569 20.9998 13 20.9998C11.3431 20.9998 10 19.6566 10 17.9998V16.9998C10 15.3429 8.65685 13.9998 7 13.9998H4C2.89543 13.9998 2 13.1043 2 11.9998V4.99976C2 3.89519 2.89543 2.99976 4 2.99976H6C6.65421 2.99976 7.23506 3.31387 7.59995 3.7995C8.26849 3.29733 9.09949 2.99976 10 2.99976H16.9627ZM8 12.0998C10.2822 12.563 12 14.5808 12 16.9998V17.9998C12 18.552 12.4477 18.9998 13 18.9998C13.5523 18.9998 14 18.552 14 17.9998V12.9998C14 12.4475 14.4477 11.9998 15 11.9998H18C18.5246 11.9998 18.9548 11.5959 18.9967 11.0821L18.0228 6.21297C17.7702 5.15551 17.2284 4.98394 17.0848 4.99616C17.0566 4.99856 17.0283 4.99976 17 4.99976H10C8.89543 4.99976 8 5.89519 8 6.99976V12.0998ZM6 11.9998H4V4.99976H6V11.9998Z" fill="#223C61"/>
</svg>
