<svg width="24" height="24" viewBox="0 0 24 24" fill="none" xmlns="http://www.w3.org/2000/svg">
<path fill-rule="evenodd" clip-rule="evenodd" d="M4 5C4 4.44772 4.44772 4 5 4H11C11.4089 4 11.7766 4.24895 11.9285 4.62861L13.677 9H15V6C15 4.89543 15.8954 4 17 4H18C18.5523 4 19 4.44772 19 5C19 5.55228 18.5523 6 18 6H17V9H19C20.1046 9 21 9.89543 21 11V14.7639C21.6137 15.3132 22 16.1115 22 17C22 18.6569 20.6569 20 19 20C17.6938 20 16.5825 19.1652 16.1707 18H11.0004C10.0882 19.2144 8.63582 20 7 20C4.23858 20 2 17.7614 2 15C2 13.3642 2.78555 11.9118 4 10.9996V5ZM6 10.1C6.32311 10.0344 6.65753 10 7 10C9.76142 10 12 12.2386 12 15C12 15.3425 11.9656 15.6769 11.9 16H16.1707C16.5825 14.8348 17.6938 14 19 14V11H13C12.5911 11 12.2234 10.751 12.0715 10.3714L10.323 6H6V10.1ZM7 12C5.34315 12 4 13.3431 4 15C4 16.6569 5.34315 18 7 18C8.65685 18 10 16.6569 10 15C10 13.3431 8.65685 12 7 12ZM7 14C7.55228 14 8 14.4477 8 15V15.01C8 15.5623 7.55228 16.01 7 16.01C6.44772 16.01 6 15.5623 6 15.01V15C6 14.4477 6.44772 14 7 14ZM19 16C18.4477 16 18 16.4477 18 17C18 17.5523 18.4477 18 19 18C19.5523 18 20 17.5523 20 17C20 16.4477 19.5523 16 19 16Z" fill="#223C61"/>
</svg>
