{
  "utrecht": {
    "color-sample": {
      "background-color": {},
      "border-width": {},
      "border-color": {},
      "border-radius": {},
      "block-size": {
        "value": "10px;"
      },
      "inline-size": {
        "value": "10px;"
      },
      "dark": {
        "border-color": {}
      },
      "light": {
        "border-color": {}
      }
    }
  }
}
