{
  "utrecht": {
    "heading-2": {
      "color": {
        "value": "{pra.color.text-color}"
      },
      "font-family": {},
      "font-size": { "value": "1.5rem" },
      "font-weight": {
        "value": "{pra.font-weight.bold}"
      },
      "line-height": {
        "value": "150%"
      },
      "margin-block-end": {
        "value": "4px"
      },
      "margin-block-start": {}
    }
  }
}
