{
  "utrecht": {
    "spotlight-section": {
      "background-color": {
        "value": "{pra.color.primary.100}"
      },
      "border-color": {},
      "border-width": {},
      "color": {
        "value": "{pra.color.black}"
      },
      "padding-block-start": {
        "value": "24px"
      },
      "padding-block-end": {
        "value": "24px"
      },
      "padding-inline-start": {
        "value": "24px"
      },
      "padding-inline-end": {
        "value": "24px"
      },
      "margin-block-start": {},
      "margin-block-end": {},
      "info": {
        "background-color": {
          "value": "{pra.color.secondary.100}"
        },
        "color": {
          "value": "{pra.color.white}"
        }
      },
      "warning": {
        "background-color": {
          "value": "#FFEEBB"
        },
        "color": {}
      }
    }
  }
}
