{
  "utrecht": {
    "textbox": {
      "background-color": {
        "value": "{pra.color.white}"
      },
      "border-color": {
        "value": "{pra.color.primary.600}"
      },
      "color": {
        "value": "{pra.color.text-color}"
      },
      "font-family": {
        "value": "{pra.font.sans-serif.font-family}"
      },
      "font-size": {},
      "max-inline-size": {},
      "border-width": {
        "value": "1.5px"
      },
      "line-height": {
        "value": "24px"
      },
      "border-radius": {
        "value": "20px"
      },
      "padding-block-start": {
        "value": "8px"
      },
      "padding-block-end": {
        "value": "8px"
      },
      "padding-inline-start": {
        "value": "16px"
      },
      "padding-inline-end": {
        "value": "16px"
      },
      "placeholder": {
        "color": {
          "value": "{pra.color.primary.400}"
        }
      },
      "disabled": {
        "background-color": {
          "value": "{pra.color.primary.100}"
        },
        "border-color": {
          "value": "{pra.color.primary.100}"
        },
        "color": {
          "value": "{pra.color.primary.300}"
        }
      },
      "focus": {
        "color": {
          "value": "{pra.color.text-color}"
        },
        "background-color": {},
        "border-color": {},
        "border-width": {}
      },
      "invalid": {
        "background-color": {},
        "border-color": {
          "value": "{pra.color.red}"
        },
        "border-width": {
          "value": "{pra.color.red}"
        }
      },
      "read-only": {
        "background-color": {},
        "color": {}
      }
    }
  }
}
